{
  "data" : [ {
    "id" : "EPA-R10-OW-2017-0369-1246",
    "type" : "comments",
    "attributes" : {
      "documentType" : "Public Submission",
      "lastModifiedDate" : "2017-10-12T01:52:49Z",
      "highlightedContent" : "",
      "withdrawn" : false,
      "agencyId" : "EPA",
      "title" : "Comment submitted by J. Grimble",
      "objectId" : "0900006482ba59a6",
      "postedDate" : "2017-10-11T04:00:00Z"
    },
    "links" : {
      "self" : "https://api.regulations.gov/v4/comments/EPA-R10-OW-2017-0369-1246"
    }
  }, {
    "id" : "EPA-R10-OW-2017-0369-1273",
    "type" : "comments",
    "attributes" : {
      "documentType" : "Public Submission",
      "lastModifiedDate" : "2017-10-12T02:00:36Z",
      "highlightedContent" : "",
      "withdrawn" : false,
      "agencyId" : "EPA",
      "title" : "Comment submitted by V. Cook",
      "objectId" : "0900006482ba5a22",
      "postedDate" : "2017-10-11T04:00:00Z"
    },
    "links" : {
      "self" : "https://api.regulations.gov/v4/comments/EPA-R10-OW-2017-0369-1273"
    }
  }, {
    "id" : "EPA-R10-OW-2017-0369-1256",
    "type" : "comments",
    "attributes" : {
      "documentType" : "Public Submission",
      "lastModifiedDate" : "2017-10-12T01:55:38Z",
      "highlightedContent" : "",
      "withdrawn" : false,
      "agencyId" : "EPA",
      "title" : "Comment submitted by S. L. Lawrence",
      "objectId" : "0900006482ba59f5",
      "postedDate" : "2017-10-11T04:00:00Z"
    },
    "links" : {
      "self" : "https://api.regulations.gov/v4/comments/EPA-R10-OW-2017-0369-1256"
    }
  }, {
    "id" : "EPA-R10-OW-2017-0369-1284",
    "type" : "comments",
    "attributes" : {
      "documentType" : "Public Submission",
      "lastModifiedDate" : "2017-10-12T02:03:43Z",
      "highlightedContent" : "",
      "withdrawn" : false,
      "agencyId" : "EPA",
      "title" : "Comment submitted by J. Callaway",
      "objectId" : "0900006482ba5a2d",
      "postedDate" : "2017-10-11T04:00:00Z"
    },
    "links" : {
      "self" : "https://api.regulations.gov/v4/comments/EPA-R10-OW-2017-0369-1284"
    }
  }, {
    "id" : "EPA-R10-OW-2017-0369-1281",
    "type" : "comments",
    "attributes" : {
      "documentType" : "Public Submission",
      "lastModifiedDate" : "2017-10-12T02:02:54Z",
      "highlightedContent" : "",
      "withdrawn" : false,
      "agencyId" : "EPA",
      "title" : "Comment submitted by E. Jones",
      "objectId" : "0900006482ba5a2a",
      "postedDate" : "2017-10-11T04:00:00Z"
    },
    "links" : {
      "self" : "https://api.regulations.gov/v4/comments/EPA-R10-OW-2017-0369-1281"
    }
  }, {
    "id" : "EPA-R10-OW-2017-0369-1291",
    "type" : "comments",
    "attributes" : {
      "documentType" : "Public Submission",
      "lastModifiedDate" : "2017-10-12T02:05:44Z",
      "highlightedContent" : "",
      "withdrawn" : false,
      "agencyId" : "EPA",
      "title" : "Comment submitted by M. Schuyler",
      "objectId" : "0900006482ba5a34",
      "postedDate" : "2017-10-11T04:00:00Z"
    },
    "links" : {
      "self" : "https://api.regulations.gov/v4/comments/EPA-R10-OW-2017-0369-1291"
    }
  }, {
    "id" : "FAA-2015-0150-4281",
    "type" : "comments",
    "attributes" : {
      "documentType" : "Public Submission",
      "lastModifiedDate" : "2015-05-05T15:07:29Z",
      "highlightedContent" : "",
      "withdrawn" : false,
      "agencyId" : "FAA",
      "title" : "Bob Bingham",
      "objectId" : "0900006481ac865f",
      "postedDate" : "2015-05-05T04:00:00Z"
    },
    "links" : {
      "self" : "https://api.regulations.gov/v4/comments/FAA-2015-0150-4281"
    }
  }, {
    "id" : "HHS-OS-2015-0004-0019",
    "type" : "comments",
    "attributes" : {
      "documentType" : "Public Submission",
      "lastModifiedDate" : "2015-05-21T13:33:59Z",
      "highlightedContent" : "",
      "withdrawn" : false,
      "agencyId" : "HHS",
      "title" : "Comment on FR Doc # 2015-03391",
      "objectId" : "0900006481ac8769",
      "postedDate" : "2015-05-21T04:00:00Z"
    },
    "links" : {
      "self" : "https://api.regulations.gov/v4/comments/HHS-OS-2015-0004-0019"
    }
  }, {
    "id" : "BSEE-2013-0011-0061",
    "type" : "comments",
    "attributes" : {
      "documentType" : "Public Submission",
      "lastModifiedDate" : "2015-06-12T17:48:26Z",
      "highlightedContent" : "",
      "withdrawn" : false,
      "agencyId" : "BSEE",
      "title" : "Comment on BSEE-2013-0011-0031",
      "objectId" : "0900006481ac8649",
      "postedDate" : "2015-05-04T04:00:00Z"
    },
    "links" : {
      "self" : "https://api.regulations.gov/v4/comments/BSEE-2013-0011-0061"
    }
  }, {
    "id" : "HHS-OS-2015-0004-0023",
    "type" : "comments",
    "attributes" : {
      "documentType" : "Public Submission",
      "lastModifiedDate" : "2015-05-21T13:34:02Z",
      "highlightedContent" : "",
      "withdrawn" : false,
      "agencyId" : "HHS",
      "title" : "Comment on FR Doc # 2015-03391",
      "objectId" : "0900006481ac8767",
      "postedDate" : "2015-05-21T04:00:00Z"
    },
    "links" : {
      "self" : "https://api.regulations.gov/v4/comments/HHS-OS-2015-0004-0023"
    }
  }, {
    "id" : "EPA-R10-OW-2017-0369-1260",
    "type" : "comments",
    "attributes" : {
      "documentType" : "Public Submission",
      "lastModifiedDate" : "2017-10-12T01:56:42Z",
      "highlightedContent" : "",
      "withdrawn" : false,
      "agencyId" : "EPA",
      "title" : "Comment submitted by J. Evitt",
      "objectId" : "0900006482ba5a15",
      "postedDate" : "2017-10-11T04:00:00Z"
    },
    "links" : {
      "self" : "https://api.regulations.gov/v4/comments/EPA-R10-OW-2017-0369-1260"
    }
  }, {
    "id" : "FAA-2015-0150-4283",
    "type" : "comments",
    "attributes" : {
      "documentType" : "Public Submission",
      "lastModifiedDate" : "2015-05-05T15:20:05Z",
      "highlightedContent" : "",
      "withdrawn" : false,
      "agencyId" : "FAA",
      "title" : "Daniel J. Ward",
      "objectId" : "0900006481ac865d",
      "postedDate" : "2015-05-05T04:00:00Z"
    },
    "links" : {
      "self" : "https://api.regulations.gov/v4/comments/FAA-2015-0150-4283"
    }
  }, {
    "id" : "EPA-R10-OW-2017-0369-1258",
    "type" : "comments",
    "attributes" : {
      "documentType" : "Public Submission",
      "lastModifiedDate" : "2017-10-12T01:56:10Z",
      "highlightedContent" : "",
      "withdrawn" : false,
      "agencyId" : "EPA",
      "title" : "Comment submitted by E. Stoakes",
      "objectId" : "0900006482ba5a13",
      "postedDate" : "2017-10-11T04:00:00Z"
    },
    "links" : {
      "self" : "https://api.regulations.gov/v4/comments/EPA-R10-OW-2017-0369-1258"
    }
  }, {
    "id" : "EPA-R10-OW-2017-0369-1336",
    "type" : "comments",
    "attributes" : {
      "documentType" : "Public Submission",
      "lastModifiedDate" : "2017-10-12T01:39:14Z",
      "highlightedContent" : "",
      "withdrawn" : false,
      "agencyId" : "EPA",
      "title" : "Comment submitted by A. Rennacker",
      "objectId" : "0900006482ba5e25",
      "postedDate" : "2017-10-11T04:00:00Z"
    },
    "links" : {
      "self" : "https://api.regulations.gov/v4/comments/EPA-R10-OW-2017-0369-1336"
    }
  }, {
    "id" : "EPA-R10-OW-2017-0369-1341",
    "type" : "comments",
    "attributes" : {
      "documentType" : "Public Submission",
      "lastModifiedDate" : "2017-10-12T01:40:36Z",
      "highlightedContent" : "",
      "withdrawn" : false,
      "agencyId" : "EPA",
      "title" : "Comment submitted by J. Hurd-Glenn",
      "objectId" : "0900006482ba5e2a",
      "postedDate" : "2017-10-11T04:00:00Z"
    },
    "links" : {
      "self" : "https://api.regulations.gov/v4/comments/EPA-R10-OW-2017-0369-1341"
    }
  }, {
    "id" : "EPA-R10-OW-2017-0369-1330",
    "type" : "comments",
    "attributes" : {
      "documentType" : "Public Submission",
      "lastModifiedDate" : "2017-10-12T01:37:36Z",
      "highlightedContent" : "",
      "withdrawn" : false,
      "agencyId" : "EPA",
      "title" : "Comment submitted by C. Alkire",
      "objectId" : "0900006482ba5e1f",
      "postedDate" : "2017-10-11T04:00:00Z"
    },
    "links" : {
      "self" : "https://api.regulations.gov/v4/comments/EPA-R10-OW-2017-0369-1330"
    }
  }, {
    "id" : "EPA-R10-OW-2017-0369-1329",
    "type" : "comments",
    "attributes" : {
      "documentType" : "Public Submission",
      "lastModifiedDate" : "2017-10-12T01:37:20Z",
      "highlightedContent" : "",
      "withdrawn" : false,
      "agencyId" : "EPA",
      "title" : "Comment submitted by T. House",
      "objectId" : "0900006482ba5e1e",
      "postedDate" : "2017-10-11T04:00:00Z"
    },
    "links" : {
      "self" : "https://api.regulations.gov/v4/comments/EPA-R10-OW-2017-0369-1329"
    }
  }, {
    "id" : "EPA-R10-OW-2017-0369-1377",
    "type" : "comments",
    "attributes" : {
      "documentType" : "Public Submission",
      "lastModifiedDate" : "2017-10-12T01:50:07Z",
      "highlightedContent" : "",
      "withdrawn" : false,
      "agencyId" : "EPA",
      "title" : "Comment submitted by D. Mummery",
      "objectId" : "0900006482ba5ea4",
      "postedDate" : "2017-10-11T04:00:00Z"
    },
    "links" : {
      "self" : "https://api.regulations.gov/v4/comments/EPA-R10-OW-2017-0369-1377"
    }
  }, {
    "id" : "BOEM-2015-0028-0024",
    "type" : "comments",
    "attributes" : {
      "documentType" : "Public Submission",
      "lastModifiedDate" : "2015-04-30T01:07:01Z",
      "highlightedContent" : "",
      "withdrawn" : false,
      "agencyId" : "BOEM",
      "title" : "Comment from Blakely Hildebrand, Southern Environmental Law Center",
      "objectId" : "0900006481ac3d70",
      "postedDate" : "2015-04-29T04:00:00Z"
    },
    "links" : {
      "self" : "https://api.regulations.gov/v4/comments/BOEM-2015-0028-0024"
    }
  }, {
    "id" : "EPA-R10-OW-2017-0369-1355",
    "type" : "comments",
    "attributes" : {
      "documentType" : "Public Submission",
      "lastModifiedDate" : "2017-10-12T01:43:52Z",
      "highlightedContent" : "",
      "withdrawn" : false,
      "agencyId" : "EPA",
      "title" : "Comment submitted by J. Ertle",
      "objectId" : "0900006482ba5e8d",
      "postedDate" : "2017-10-11T04:00:00Z"
    },
    "links" : {
      "self" : "https://api.regulations.gov/v4/comments/EPA-R10-OW-2017-0369-1355"
    }
  }, {
    "id" : "FDA-2015-D-0198-0026",
    "type" : "comments",
    "attributes" : {
      "documentType" : "Public Submission",
      "lastModifiedDate" : "2015-05-20T19:58:34Z",
      "highlightedContent" : "",
      "withdrawn" : false,
      "agencyId" : "FDA",
      "title" : "Comment from Combination Products Coalition",
      "objectId" : "0900006481ac3e45",
      "postedDate" : "2015-05-20T04:00:00Z"
    },
    "links" : {
      "self" : "https://api.regulations.gov/v4/comments/FDA-2015-D-0198-0026"
    }
  }, {
    "id" : "EPA-R10-OW-2017-0369-1358",
    "type" : "comments",
    "attributes" : {
      "documentType" : "Public Submission",
      "lastModifiedDate" : "2017-10-12T01:44:44Z",
      "highlightedContent" : "",
      "withdrawn" : false,
      "agencyId" : "EPA",
      "title" : "Comment submitted by A. Keyser",
      "objectId" : "0900006482ba5e90",
      "postedDate" : "2017-10-11T04:00:00Z"
    },
    "links" : {
      "self" : "https://api.regulations.gov/v4/comments/EPA-R10-OW-2017-0369-1358"
    }
  }, {
    "id" : "BOEM-2015-0026-0033",
    "type" : "comments",
    "attributes" : {
      "documentType" : "Public Submission",
      "lastModifiedDate" : "2015-04-30T00:49:33Z",
      "highlightedContent" : "",
      "withdrawn" : false,
      "agencyId" : "BOEM",
      "title" : "Comment from Jason Roberts, Duke University Marine Geospatial Ecology Lab",
      "objectId" : "0900006481ac3df0",
      "postedDate" : "2015-04-29T04:00:00Z"
    },
    "links" : {
      "self" : "https://api.regulations.gov/v4/comments/BOEM-2015-0026-0033"
    }
  }, {
    "id" : "EPA-R10-OW-2017-0369-1365",
    "type" : "comments",
    "attributes" : {
      "documentType" : "Public Submission",
      "lastModifiedDate" : "2017-10-12T01:46:43Z",
      "highlightedContent" : "",
      "withdrawn" : false,
      "agencyId" : "EPA",
      "title" : "Comment submitted by K. Blecker",
      "objectId" : "0900006482ba5e97",
      "postedDate" : "2017-10-11T04:00:00Z"
    },
    "links" : {
      "self" : "https://api.regulations.gov/v4/comments/EPA-R10-OW-2017-0369-1365"
    }
  }, {
    "id" : "BOEM-2015-0027-0032",
    "type" : "comments",
    "attributes" : {
      "documentType" : "Public Submission",
      "lastModifiedDate" : "2015-05-05T00:35:58Z",
      "highlightedContent" : "",
      "withdrawn" : false,
      "agencyId" : "BOEM",
      "title" : "Comment from Juan Bacigalupi, NA",
      "objectId" : "0900006481ac3ee6",
      "postedDate" : "2015-05-03T04:00:00Z"
    },
    "links" : {
      "self" : "https://api.regulations.gov/v4/comments/BOEM-2015-0027-0032"
    }
  } ],
  "meta" : {
    "aggregations" : {
      "agencyId" : [ {
        "docCount" : 2431524,
        "value" : "FWS"
      }, {
        "docCount" : 1731242,
        "value" : "FDA"
      }, {
        "docCount" : 1303565,
        "value" : "CMS"
      }, {
        "docCount" : 1104196,
        "value" : "HHS"
      }, {
        "docCount" : 1097202,
        "value" : "EPA"
      }, {
        "docCount" : 1025774,
        "value" : "CEQ"
      }, {
        "docCount" : 977263,
        "value" : "ATF"
      }, {
        "docCount" : 974148,
        "value" : "ED"
      }, {
        "docCount" : 895382,
        "value" : "CFPB"
      }, {
        "docCount" : 850107,
        "value" : "DOI"
      }, {
        "docCount" : 704107,
        "value" : "NOAA"
      }, {
        "docCount" : 656731,
        "value" : "BLM"
      }, {
        "docCount" : 607568,
        "value" : "WHD"
      }, {
        "docCount" : 556633,
        "value" : "BOEM"
      }, {
        "docCount" : 555887,
        "value" : "APHIS"
      }, {
        "docCount" : 419579,
        "value" : "FNS"
      }, {
        "docCount" : 382333,
        "value" : "OSHA"
      }, {
        "docCount" : 376074,
        "value" : "IRS"
      }, {
        "docCount" : 364289,
        "value" : "FS"
      }, {
        "docCount" : 363605,
        "value" : "FAA"
      }, {
        "docCount" : 345921,
        "value" : "ETA"
      }, {
        "docCount" : 345789,
        "value" : "AMS"
      }, {
        "docCount" : 345217,
        "value" : "VA"
      }, {
        "docCount" : 339751,
        "value" : "NPS"
      }, {
        "docCount" : 299265,
        "value" : "NHTSA"
      }, {
        "docCount" : 288080,
        "value" : "CDC"
      }, {
        "docCount" : 251621,
        "value" : "USCIS"
      }, {
        "docCount" : 250506,
        "value" : "DOT"
      }, {
        "docCount" : 214875,
        "value" : "FTC"
      }, {
        "docCount" : 189019,
        "value" : "FSIS"
      }, {
        "docCount" : 177534,
        "value" : "DOS"
      }, {
        "docCount" : 176319,
        "value" : "ICEB"
      }, {
        "docCount" : 172862,
        "value" : "BIS"
      }, {
        "docCount" : 168709,
        "value" : "EEOC"
      }, {
        "docCount" : 166331,
        "value" : "FMCSA"
      }, {
        "docCount" : 146755,
        "value" : "SSA"
      }, {
        "docCount" : 137085,
        "value" : "NLRB"
      }, {
        "docCount" : 130196,
        "value" : "DEA"
      }, {
        "docCount" : 121223,
        "value" : "OFCCP"
      }, {
        "docCount" : 119339,
        "value" : "OMB"
      }, {
        "docCount" : 117087,
        "value" : "COLC"
      }, {
        "docCount" : 111062,
        "value" : "FHWA"
      }, {
        "docCount" : 109149,
        "value" : "ACF"
      }, {
        "docCount" : 100824,
        "value" : "EOIR"
      }, {
        "docCount" : 97802,
        "value" : "HUD"
      }, {
        "docCount" : 97170,
        "value" : "USBC"
      }, {
        "docCount" : 86099,
        "value" : "USTR"
      }, {
        "docCount" : 73865,
        "value" : "DOJ"
      }, {
        "docCount" : 72051,
        "value" : "NIST"
      }, {
        "docCount" : 71577,
        "value" : "PHMSA"
      }, {
        "docCount" : 67234,
        "value" : "EBSA"
      }, {
        "docCount" : 62424,
        "value" : "USCG"
      }, {
        "docCount" : 61592,
        "value" : "FAR"
      }, {
        "docCount" : 58052,
        "value" : "DHS"
      }, {
        "docCount" : 54819,
        "value" : "CPSC"
      }, {
        "docCount" : 53311,
        "value" : "OPM"
      }, {
        "docCount" : 49496,
        "value" : "BSEE"
      }, {
        "docCount" : 39362,
        "value" : "EERE"
      }, {
        "docCount" : 37269,
        "value" : "BLS"
      }, {
        "docCount" : 36965,
        "value" : "MARAD"
      }, {
        "docCount" : 35984,
        "value" : "GIPSA"
      }, {
        "docCount" : 34670,
        "value" : "HHSIG"
      }, {
        "docCount" : 33761,
        "value" : "NRC"
      }, {
        "docCount" : 33029,
        "value" : "FRA"
      }, {
        "docCount" : 31459,
        "value" : "SBA"
      }, {
        "docCount" : 29161,
        "value" : "OCC"
      }, {
        "docCount" : 28886,
        "value" : "TSA"
      }, {
        "docCount" : 24623,
        "value" : "OSM"
      }, {
        "docCount" : 16920,
        "value" : "MMS"
      }, {
        "docCount" : 16907,
        "value" : "FTA"
      }, {
        "docCount" : 16658,
        "value" : "FINCEN"
      }, {
        "docCount" : 16386,
        "value" : "USDA"
      }, {
        "docCount" : 15107,
        "value" : "COE"
      }, {
        "docCount" : 14794,
        "value" : "LMSO"
      }, {
        "docCount" : 13301,
        "value" : "TREAS"
      }, {
        "docCount" : 12517,
        "value" : "TTB"
      }, {
        "docCount" : 11207,
        "value" : "PTO"
      }, {
        "docCount" : 10236,
        "value" : "USCBP"
      }, {
        "docCount" : 9754,
        "value" : "GSA"
      }, {
        "docCount" : 8833,
        "value" : "FMC"
      }, {
        "docCount" : 8031,
        "value" : "DOE"
      }, {
        "docCount" : 7146,
        "value" : "ESA"
      }, {
        "docCount" : 6774,
        "value" : "DARS"
      }, {
        "docCount" : 6681,
        "value" : "DOL"
      }, {
        "docCount" : 6351,
        "value" : "USC"
      }, {
        "docCount" : 6267,
        "value" : "NCUA"
      }, {
        "docCount" : 6265,
        "value" : "DOD"
      }, {
        "docCount" : 6020,
        "value" : "DOC"
      }, {
        "docCount" : 6003,
        "value" : "FEMA"
      }, {
        "docCount" : 5760,
        "value" : "HRSA"
      }, {
        "docCount" : 5444,
        "value" : "PCSCOTUS"
      }, {
        "docCount" : 5399,
        "value" : "NRCS"
      }, {
        "docCount" : 4416,
        "value" : "OJP"
      }, {
        "docCount" : 4096,
        "value" : "NTIA"
      }, {
        "docCount" : 3926,
        "value" : "BIA"
      }, {
        "docCount" : 3709,
        "value" : "BOP"
      }, {
        "docCount" : 3018,
        "value" : "NARA"
      }, {
        "docCount" : 2914,
        "value" : "CNCS"
      }, {
        "docCount" : 2382,
        "value" : "ATBCB"
      }, {
        "docCount" : 2325,
        "value" : "FSA"
      }, {
        "docCount" : 2321,
        "value" : "OTS"
      }, {
        "docCount" : 2255,
        "value" : "BOR"
      }, {
        "docCount" : 2115,
        "value" : "RBS"
      }, {
        "docCount" : 2062,
        "value" : "ITA"
      }, {
        "docCount" : 2040,
        "value" : "USA"
      }, {
        "docCount" : 1918,
        "value" : "FSOC"
      }, {
        "docCount" : 1884,
        "value" : "MSHA"
      }, {
        "docCount" : 1537,
        "value" : "SAMHSA"
      }, {
        "docCount" : 1233,
        "value" : "NIH"
      }, {
        "docCount" : 975,
        "value" : "RHS"
      }, {
        "docCount" : 955,
        "value" : "WCPO"
      }, {
        "docCount" : 934,
        "value" : "CISA"
      }, {
        "docCount" : 850,
        "value" : "AID"
      }, {
        "docCount" : 829,
        "value" : "RUS"
      }, {
        "docCount" : 804,
        "value" : "RITA"
      }, {
        "docCount" : 771,
        "value" : "ATR"
      }, {
        "docCount" : 728,
        "value" : "NIGC"
      }, {
        "docCount" : 717,
        "value" : "ACL"
      }, {
        "docCount" : 663,
        "value" : "EAC"
      }, {
        "docCount" : 650,
        "value" : "OSTP"
      }, {
        "docCount" : 648,
        "value" : "NASA"
      }, {
        "docCount" : 620,
        "value" : "FCIC"
      }, {
        "docCount" : 617,
        "value" : "ONRR"
      }, {
        "docCount" : 602,
        "value" : "EIB"
      }, {
        "docCount" : 585,
        "value" : "CCC"
      }, {
        "docCount" : 549,
        "value" : "ASC"
      }, {
        "docCount" : 530,
        "value" : "CPPBSD"
      }, {
        "docCount" : 473,
        "value" : "AHRQ"
      }, {
        "docCount" : 424,
        "value" : "PBGC"
      }, {
        "docCount" : 416,
        "value" : "ATSDR"
      }, {
        "docCount" : 395,
        "value" : "FFIEC"
      }, {
        "docCount" : 392,
        "value" : "FISCAL"
      }, {
        "docCount" : 371,
        "value" : "NIFA"
      }, {
        "docCount" : 287,
        "value" : "CDFI"
      }, {
        "docCount" : 240,
        "value" : "OFPP"
      }, {
        "docCount" : 239,
        "value" : "OJJDP"
      }, {
        "docCount" : 213,
        "value" : "FBI"
      }, {
        "docCount" : 196,
        "value" : "FRTIB"
      }, {
        "docCount" : 194,
        "value" : "ONCD"
      }, {
        "docCount" : 193,
        "value" : "CSREES"
      }, {
        "docCount" : 172,
        "value" : "PCLOB"
      }, {
        "docCount" : 167,
        "value" : "NTSB"
      }, {
        "docCount" : 150,
        "value" : "BSC"
      }, {
        "docCount" : 127,
        "value" : "IHS"
      }, {
        "docCount" : 117,
        "value" : "FAS"
      }, {
        "docCount" : 95,
        "value" : "EDA"
      }, {
        "docCount" : 88,
        "value" : "AOA"
      }, {
        "docCount" : 88,
        "value" : "USMINT"
      }, {
        "docCount" : 86,
        "value" : "USN"
      }, {
        "docCount" : 72,
        "value" : "VETS"
      }, {
        "docCount" : 55,
        "value" : "OPPM"
      }, {
        "docCount" : 49,
        "value" : "OFAC"
      }, {
        "docCount" : 48,
        "value" : "CSB"
      }, {
        "docCount" : 48,
        "value" : "OFR"
      }, {
        "docCount" : 43,
        "value" : "ONDCP"
      }, {
        "docCount" : 40,
        "value" : "NSPC"
      }, {
        "docCount" : 34,
        "value" : "USPC"
      }, {
        "docCount" : 33,
        "value" : "SLSDC"
      }, {
        "docCount" : 32,
        "value" : "FIRSTNET"
      }, {
        "docCount" : 29,
        "value" : "ARS"
      }, {
        "docCount" : 26,
        "value" : "NAL"
      }, {
        "docCount" : 18,
        "value" : "NSF"
      }, {
        "docCount" : 15,
        "value" : "BPD"
      }, {
        "docCount" : 12,
        "value" : "USAF"
      }, {
        "docCount" : 10,
        "value" : "ECAB"
      }, {
        "docCount" : 8,
        "value" : "EAB"
      }, {
        "docCount" : 7,
        "value" : "ERS"
      }, {
        "docCount" : 7,
        "value" : "IPEC"
      }, {
        "docCount" : 6,
        "value" : "NASS"
      }, {
        "docCount" : 3,
        "value" : "FTZB"
      }, {
        "docCount" : 3,
        "value" : "ODNI"
      }, {
        "docCount" : 2,
        "value" : "ISOO"
      }, {
        "docCount" : 1,
        "value" : "FLETC"
      }, {
        "docCount" : 1,
        "value" : "GAPFAC"
      }, {
        "docCount" : 1,
        "value" : "NCS"
      } ],
      "postedDate" : [ {
        "docCount" : 1015,
        "label" : "Today",
        "fromDate" : "2025-06-23 00:00:00",
        "toDate" : "2025-06-23 23:59:59"
      }, {
        "docCount" : 2004,
        "label" : "Last 3 Days",
        "fromDate" : "2025-06-21 00:00:00",
        "toDate" : "2025-06-23 23:59:59"
      }, {
        "docCount" : 29980,
        "label" : "Last 7 Days",
        "fromDate" : "2025-06-17 00:00:00",
        "toDate" : "2025-06-23 23:59:59"
      }, {
        "docCount" : 148801,
        "label" : "Last 15 Days",
        "fromDate" : "2025-06-09 00:00:00",
        "toDate" : "2025-06-23 23:59:59"
      }, {
        "docCount" : 207855,
        "label" : "Last 30 Days",
        "fromDate" : "2025-05-25 00:00:00",
        "toDate" : "2025-06-23 23:59:59"
      }, {
        "docCount" : 710665,
        "label" : "Last 90 Days",
        "fromDate" : "2025-03-26 00:00:00",
        "toDate" : "2025-06-23 23:59:59"
      } ]
    },
    "filters" : { },
    "hasNextPage" : true,
    "hasPreviousPage" : false,
    "numberOfElements" : 25,
    "pageNumber" : 1,
    "pageSize" : 25,
    "totalElements" : 23774055,
    "totalPages" : 40,
    "firstPage" : true,
    "lastPage" : false
  }
}